solid OpenSCAD_Model
  facet normal -1 0 0
    outer loop
      vertex 0 1.75 7
      vertex 0 26.25 8
      vertex 0 26.25 7
    endloop
  endfacet
  facet normal -1 -0 0
    outer loop
      vertex 0 26.25 8
      vertex 0 1.75 7
      vertex 0 1.75 8
    endloop
  endfacet
  facet normal -1 0 0
    outer loop
      vertex 0 26.25 6
      vertex 0 28.01 7
      vertex 0 28.01 0
    endloop
  endfacet
  facet normal -1 0 0
    outer loop
      vertex 0 26.25 7
      vertex 0 28.01 7
      vertex 0 26.25 6
    endloop
  endfacet
  facet normal -1 0 0
    outer loop
      vertex 0 28.01 0
      vertex 0 23.25 1
      vertex 0 26.25 6
    endloop
  endfacet
  facet normal -1 0 0
    outer loop
      vertex 0 -0.00999451 0
      vertex 0 23.25 1
      vertex 0 28.01 0
    endloop
  endfacet
  facet normal -1 0 0
    outer loop
      vertex 0 2.75 1
      vertex 0 1.75 6
      vertex 0 2.75 6
    endloop
  endfacet
  facet normal -1 0 0
    outer loop
      vertex 0 -0.00999451 10
      vertex 0 1.75 7
      vertex 0 1.75 6
    endloop
  endfacet
  facet normal -1 0 0
    outer loop
      vertex 0 1.75 7
      vertex 0 -0.00999451 10
      vertex 0 1.75 8
    endloop
  endfacet
  facet normal -1 0 0
    outer loop
      vertex 0 -0.00999451 10
      vertex 0 1.75 6
      vertex 0 -0.00999451 0
    endloop
  endfacet
  facet normal -1 -0 0
    outer loop
      vertex 0 2.75 1
      vertex 0 -0.00999451 0
      vertex 0 1.75 6
    endloop
  endfacet
  facet normal -1 -0 0
    outer loop
      vertex 0 23.25 1
      vertex 0 -0.00999451 0
      vertex 0 2.75 1
    endloop
  endfacet
  facet normal -1 0 0
    outer loop
      vertex 0 26.25 8
      vertex 0 28.01 7
      vertex 0 26.25 7
    endloop
  endfacet
  facet normal -1 0 0
    outer loop
      vertex 0 28.01 7
      vertex 0 26.25 8
      vertex 0 28.01 10
    endloop
  endfacet
  facet normal -1 0 0
    outer loop
      vertex 0 26.25 9
      vertex 0 28.01 10
      vertex 0 26.25 8
    endloop
  endfacet
  facet normal -1 0 0
    outer loop
      vertex 0 1.75 9
      vertex 0 28.01 10
      vertex 0 26.25 9
    endloop
  endfacet
  facet normal -1 0 0
    outer loop
      vertex 0 1.75 9
      vertex 0 -0.00999451 10
      vertex 0 28.01 10
    endloop
  endfacet
  facet normal -1 0 0
    outer loop
      vertex 0 1.75 8
      vertex 0 -0.00999451 10
      vertex 0 1.75 9
    endloop
  endfacet
  facet normal -1 -0 0
    outer loop
      vertex 0 26.25 6
      vertex 0 23.25 1
      vertex 0 23.25 6
    endloop
  endfacet
  facet normal 1 0 0
    outer loop
      vertex 33 2.75 6
      vertex 33 1.75 6
      vertex 33 2.75 1
    endloop
  endfacet
  facet normal 1 0 0
    outer loop
      vertex 33 26.25 7
      vertex 33 28.01 7
      vertex 33 28.01 8
    endloop
  endfacet
  facet normal 1 0 0
    outer loop
      vertex 33 28.01 7
      vertex 33 26.25 7
      vertex 33 26.25 6
    endloop
  endfacet
  facet normal 1 0 0
    outer loop
      vertex 33 28.01 8
      vertex 33 1.75 7
      vertex 33 26.25 7
    endloop
  endfacet
  facet normal 1 0 0
    outer loop
      vertex 33 1.75 7
      vertex 33 -0.00999451 8
      vertex 33 1.75 6
    endloop
  endfacet
  facet normal 1 -0 0
    outer loop
      vertex 33 -0.00999451 8
      vertex 33 1.75 7
      vertex 33 28.01 8
    endloop
  endfacet
  facet normal 1 0 0
    outer loop
      vertex 33 28.01 7
      vertex 33 26.25 6
      vertex 33 28.01 0
    endloop
  endfacet
  facet normal 1 0 0
    outer loop
      vertex 33 23.25 1
      vertex 33 26.25 6
      vertex 33 23.25 6
    endloop
  endfacet
  facet normal 1 0 0
    outer loop
      vertex 33 26.25 6
      vertex 33 23.25 1
      vertex 33 28.01 0
    endloop
  endfacet
  facet normal 1 0 0
    outer loop
      vertex 33 -0.00999451 0
      vertex 33 23.25 1
      vertex 33 2.75 1
    endloop
  endfacet
  facet normal 1 0 0
    outer loop
      vertex 33 -0.00999451 0
      vertex 33 1.75 6
      vertex 33 -0.00999451 8
    endloop
  endfacet
  facet normal 1 0 0
    outer loop
      vertex 33 23.25 1
      vertex 33 -0.00999451 0
      vertex 33 28.01 0
    endloop
  endfacet
  facet normal 1 0 0
    outer loop
      vertex 33 1.75 6
      vertex 33 -0.00999451 0
      vertex 33 2.75 1
    endloop
  endfacet
  facet normal 0 0 1
    outer loop
      vertex 6 1.75 7
      vertex 30 -0.00999451 7
      vertex 30 1.75 7
    endloop
  endfacet
  facet normal 0 0 1
    outer loop
      vertex 30 -0.00999451 7
      vertex 6 1.75 7
      vertex 6 -0.00999451 7
    endloop
  endfacet
  facet normal 0 0 -1
    outer loop
      vertex 0 1.75 7
      vertex 6 26.25 7
      vertex 6 1.75 7
    endloop
  endfacet
  facet normal -0 0 -1
    outer loop
      vertex 6 26.25 7
      vertex 0 1.75 7
      vertex 0 26.25 7
    endloop
  endfacet
  facet normal 0 0 -1
    outer loop
      vertex 30 1.75 7
      vertex 33 26.25 7
      vertex 33 1.75 7
    endloop
  endfacet
  facet normal -0 0 -1
    outer loop
      vertex 33 26.25 7
      vertex 30 1.75 7
      vertex 30 26.25 7
    endloop
  endfacet
  facet normal -0 0 1
    outer loop
      vertex 6 28.01 7
      vertex 30 26.25 7
      vertex 30 28.01 7
    endloop
  endfacet
  facet normal 0 0 1
    outer loop
      vertex 30 26.25 7
      vertex 6 28.01 7
      vertex 6 26.25 7
    endloop
  endfacet
  facet normal 0 -1 0
    outer loop
      vertex 0 26.25 6
      vertex 6 26.25 7
      vertex 0 26.25 7
    endloop
  endfacet
  facet normal 0 -1 0
    outer loop
      vertex 33 26.25 6
      vertex 6 26.25 7
      vertex 0 26.25 6
    endloop
  endfacet
  facet normal 0 -1 0
    outer loop
      vertex 6 26.25 7
      vertex 33 26.25 6
      vertex 30 26.25 7
    endloop
  endfacet
  facet normal 0 -1 0
    outer loop
      vertex 30 26.25 7
      vertex 33 26.25 6
      vertex 33 26.25 7
    endloop
  endfacet
  facet normal -0 0 1
    outer loop
      vertex 0 26.25 6
      vertex 33 23.25 6
      vertex 33 26.25 6
    endloop
  endfacet
  facet normal 0 0 1
    outer loop
      vertex 33 23.25 6
      vertex 0 26.25 6
      vertex 0 23.25 6
    endloop
  endfacet
  facet normal 0 -1 0
    outer loop
      vertex 0 23.25 1
      vertex 33 23.25 6
      vertex 0 23.25 6
    endloop
  endfacet
  facet normal 0 -1 -0
    outer loop
      vertex 33 23.25 6
      vertex 0 23.25 1
      vertex 33 23.25 1
    endloop
  endfacet
  facet normal -0 0 1
    outer loop
      vertex 0 23.25 1
      vertex 33 2.75 1
      vertex 33 23.25 1
    endloop
  endfacet
  facet normal 0 0 1
    outer loop
      vertex 33 2.75 1
      vertex 0 23.25 1
      vertex 0 2.75 1
    endloop
  endfacet
  facet normal 2.88992e-08 1 -0
    outer loop
      vertex 33 2.75 1
      vertex 0 2.75 6
      vertex 33 2.75 6
    endloop
  endfacet
  facet normal 2.88992e-08 1 0
    outer loop
      vertex 0 2.75 6
      vertex 33 2.75 1
      vertex 0 2.75 1
    endloop
  endfacet
  facet normal 0 0 1
    outer loop
      vertex 0 2.75 6
      vertex 33 1.75 6
      vertex 33 2.75 6
    endloop
  endfacet
  facet normal 0 0 1
    outer loop
      vertex 33 1.75 6
      vertex 0 2.75 6
      vertex 0 1.75 6
    endloop
  endfacet
  facet normal 3.97364e-08 1 -0
    outer loop
      vertex 33 1.75 6
      vertex 30 1.75 7
      vertex 33 1.75 7
    endloop
  endfacet
  facet normal 2.98023e-08 1 -2.98023e-08
    outer loop
      vertex 30 1.75 7
      vertex 33 1.75 6
      vertex 6 1.75 7
    endloop
  endfacet
  facet normal 2.88992e-08 1 -5.4186e-08
    outer loop
      vertex 0 1.75 6
      vertex 6 1.75 7
      vertex 33 1.75 6
    endloop
  endfacet
  facet normal 1.98682e-08 1 0
    outer loop
      vertex 6 1.75 7
      vertex 0 1.75 6
      vertex 0 1.75 7
    endloop
  endfacet
  facet normal 0 -1 0
    outer loop
      vertex 0 -0.00999451 10
      vertex 3 -0.00999451 8
      vertex 3 -0.00999451 10
    endloop
  endfacet
  facet normal 0 -1 0
    outer loop
      vertex 3 -0.00999451 8
      vertex 6 -0.00999451 7
      vertex 6 -0.00999451 8
    endloop
  endfacet
  facet normal 0 -1 0
    outer loop
      vertex 33 -0.00999451 0
      vertex 6 -0.00999451 7
      vertex 0 -0.00999451 0
    endloop
  endfacet
  facet normal 0 -1 -0
    outer loop
      vertex 3 -0.00999451 8
      vertex 0 -0.00999451 0
      vertex 6 -0.00999451 7
    endloop
  endfacet
  facet normal 0 -1 0
    outer loop
      vertex 0 -0.00999451 0
      vertex 3 -0.00999451 8
      vertex 0 -0.00999451 10
    endloop
  endfacet
  facet normal 0 -1 0
    outer loop
      vertex 30 -0.00999451 7
      vertex 33 -0.00999451 8
      vertex 30 -0.00999451 8
    endloop
  endfacet
  facet normal 0 -1 0
    outer loop
      vertex 30 -0.00999451 7
      vertex 33 -0.00999451 0
      vertex 33 -0.00999451 8
    endloop
  endfacet
  facet normal 0 -1 0
    outer loop
      vertex 6 -0.00999451 7
      vertex 33 -0.00999451 0
      vertex 30 -0.00999451 7
    endloop
  endfacet
  facet normal 0 0 -1
    outer loop
      vertex 0 -0.00999451 0
      vertex 33 28.01 0
      vertex 33 -0.00999451 0
    endloop
  endfacet
  facet normal -0 0 -1
    outer loop
      vertex 33 28.01 0
      vertex 0 -0.00999451 0
      vertex 0 28.01 0
    endloop
  endfacet
  facet normal 0 1 -0
    outer loop
      vertex 33 28.01 0
      vertex 30 28.01 7
      vertex 33 28.01 7
    endloop
  endfacet
  facet normal 0 1 0
    outer loop
      vertex 30 28.01 7
      vertex 33 28.01 0
      vertex 6 28.01 7
    endloop
  endfacet
  facet normal 0 1 0
    outer loop
      vertex 0 28.01 0
      vertex 6 28.01 7
      vertex 33 28.01 0
    endloop
  endfacet
  facet normal 0 1 0
    outer loop
      vertex 6 28.01 7
      vertex 0 28.01 0
      vertex 0 28.01 7
    endloop
  endfacet
  facet normal 1 0 0
    outer loop
      vertex 6 28.01 8
      vertex 6 26.25 7
      vertex 6 28.01 7
    endloop
  endfacet
  facet normal 1 0 0
    outer loop
      vertex 6 28.01 8
      vertex 6 1.75 7
      vertex 6 26.25 7
    endloop
  endfacet
  facet normal 1 -0 0
    outer loop
      vertex 6 -0.00999451 8
      vertex 6 1.75 7
      vertex 6 28.01 8
    endloop
  endfacet
  facet normal 1 0 0
    outer loop
      vertex 6 1.75 7
      vertex 6 -0.00999451 8
      vertex 6 -0.00999451 7
    endloop
  endfacet
  facet normal -0 0 1
    outer loop
      vertex 0 26.25 8
      vertex 3 1.75 8
      vertex 3 26.25 8
    endloop
  endfacet
  facet normal 0 0 1
    outer loop
      vertex 3 1.75 8
      vertex 0 26.25 8
      vertex 0 1.75 8
    endloop
  endfacet
  facet normal 0 0 1
    outer loop
      vertex 3 26.25 8
      vertex 6 28.01 8
      vertex 3 28.01 8
    endloop
  endfacet
  facet normal 0 0 1
    outer loop
      vertex 6 28.01 8
      vertex 3 26.25 8
      vertex 6 -0.00999451 8
    endloop
  endfacet
  facet normal -0 0 1
    outer loop
      vertex 3 1.75 8
      vertex 6 -0.00999451 8
      vertex 3 26.25 8
    endloop
  endfacet
  facet normal 0 0 1
    outer loop
      vertex 6 -0.00999451 8
      vertex 3 1.75 8
      vertex 3 -0.00999451 8
    endloop
  endfacet
  facet normal 0 1 0
    outer loop
      vertex 6 28.01 8
      vertex 6 28.01 7
      vertex 3 28.01 8
    endloop
  endfacet
  facet normal 0 1 -0
    outer loop
      vertex 3 28.01 8
      vertex 0 28.01 10
      vertex 3 28.01 10
    endloop
  endfacet
  facet normal 0 1 0
    outer loop
      vertex 3 28.01 8
      vertex 0 28.01 7
      vertex 0 28.01 10
    endloop
  endfacet
  facet normal 0 1 0
    outer loop
      vertex 0 28.01 7
      vertex 3 28.01 8
      vertex 6 28.01 7
    endloop
  endfacet
  facet normal 1 0 0
    outer loop
      vertex 3 28.01 10
      vertex 3 26.25 9
      vertex 3 28.01 8
    endloop
  endfacet
  facet normal 1 0 0
    outer loop
      vertex 3 28.01 10
      vertex 3 1.75 9
      vertex 3 26.25 9
    endloop
  endfacet
  facet normal 1 -0 0
    outer loop
      vertex 3 -0.00999451 10
      vertex 3 1.75 9
      vertex 3 28.01 10
    endloop
  endfacet
  facet normal 1 0 0
    outer loop
      vertex 3 -0.00999451 8
      vertex 3 1.75 9
      vertex 3 -0.00999451 10
    endloop
  endfacet
  facet normal 1 0 0
    outer loop
      vertex 3 1.75 9
      vertex 3 -0.00999451 8
      vertex 3 1.75 8
    endloop
  endfacet
  facet normal 1 0 0
    outer loop
      vertex 3 28.01 8
      vertex 3 26.25 9
      vertex 3 26.25 8
    endloop
  endfacet
  facet normal 0 0 -1
    outer loop
      vertex 0 1.75 9
      vertex 3 26.25 9
      vertex 3 1.75 9
    endloop
  endfacet
  facet normal -0 0 -1
    outer loop
      vertex 3 26.25 9
      vertex 0 1.75 9
      vertex 0 26.25 9
    endloop
  endfacet
  facet normal 0 1 -0
    outer loop
      vertex 3 1.75 8
      vertex 0 1.75 9
      vertex 3 1.75 9
    endloop
  endfacet
  facet normal 0 1 0
    outer loop
      vertex 0 1.75 9
      vertex 3 1.75 8
      vertex 0 1.75 8
    endloop
  endfacet
  facet normal 0 -1 0
    outer loop
      vertex 0 26.25 8
      vertex 3 26.25 9
      vertex 0 26.25 9
    endloop
  endfacet
  facet normal 0 -1 -0
    outer loop
      vertex 3 26.25 9
      vertex 0 26.25 8
      vertex 3 26.25 8
    endloop
  endfacet
  facet normal -0 0 1
    outer loop
      vertex 0 28.01 10
      vertex 3 -0.00999451 10
      vertex 3 28.01 10
    endloop
  endfacet
  facet normal 0 0 1
    outer loop
      vertex 3 -0.00999451 10
      vertex 0 28.01 10
      vertex 0 -0.00999451 10
    endloop
  endfacet
  facet normal -1 0 0
    outer loop
      vertex 30 26.25 7
      vertex 30 28.01 8
      vertex 30 28.01 7
    endloop
  endfacet
  facet normal -1 0 0
    outer loop
      vertex 30 1.75 7
      vertex 30 28.01 8
      vertex 30 26.25 7
    endloop
  endfacet
  facet normal -1 0 0
    outer loop
      vertex 30 -0.00999451 8
      vertex 30 1.75 7
      vertex 30 -0.00999451 7
    endloop
  endfacet
  facet normal -1 0 0
    outer loop
      vertex 30 1.75 7
      vertex 30 -0.00999451 8
      vertex 30 28.01 8
    endloop
  endfacet
  facet normal -0 0 1
    outer loop
      vertex 30 28.01 8
      vertex 33 -0.00999451 8
      vertex 33 28.01 8
    endloop
  endfacet
  facet normal 0 0 1
    outer loop
      vertex 33 -0.00999451 8
      vertex 30 28.01 8
      vertex 30 -0.00999451 8
    endloop
  endfacet
  facet normal 0 1 -0
    outer loop
      vertex 33 28.01 7
      vertex 30 28.01 8
      vertex 33 28.01 8
    endloop
  endfacet
  facet normal 0 1 0
    outer loop
      vertex 30 28.01 8
      vertex 33 28.01 7
      vertex 30 28.01 7
    endloop
  endfacet
endsolid OpenSCAD_Model
